Admp (anti-dorsalizing morphogenetic protein),cilv010d12,KY.Chr2.773,Old Name: ADMP
Bmp2/4 (bone morphogenetic protein 2/4),cicl060n01,KY.Chr4.449,Old Name: BMP2/4
Bmp3 (bone morphogenetic protein 3),citb038j20,KY.Chr12.885,Old Name: BMP3
Bmp5/6/7/8 (bone morphogenetic protein 5/6/7/8),ciad042d16,KY.Chr2.1328,Old Name: BMP5/7-like
Mstn (myostatin),ciad041p16,KY.Chr3.534,Old Name: GDF8
Lefty (left-right determination factor),cicl007p08,KY.Chr3.1493,Old Name: lefty/antivin
Nodal (nodal growth differentiation factor),cicl090l02,KY.Chr14.1181,Old Name: nodal
Gdf1/3-r (growth differentiation factor 1/3-related),cicl015k02,KY.Chr4.450,Old Name: GDF1/3-like; TGFβ; not assigned 1
Tgfbtun1 (Tunicate transforming growth factor beta 1),cicl027m09,KY.Chr5.606,Old Name: TGFβ; not assigned 2
Tgfbtun2 (Tunicate transforming growth factor beta 2),not analyzed,KY.Chr1.1371,Old Name: TGFβ; not assigned 3
Tgfbtun3 (Tunicate transforming growth factor beta 3),not analyzed,KY.Chr2.1400,Old Name: TGFβ; not assigned 4
Tgfb1/2/3 (transforming growth factor beta 1/2/3),ciad051d03,KY.Chr3.1499,Old Name: TGFβ 2
Chd (chordin),cicl016e09,KY.Chr6.371,
Dand (Dan domain familymember),cilv070a10,KY.Chr10.1375,Old Name: DAN
Nog (noggin),cicl061d20,KY.Chr12.723,
Pinhead,To be Updated,KY.Chr2.772,
Tll (Tolloid like),citb004e15,KY.Chr12.746,Old Name: tolloid
TGFβ receptor-Ia,cicl044e18,KY.UAContig1.126,
TGFβ receptor-Ib,cilv012b22,KY.Chr14.403,
TGFβ receptor-Ic,cieg008p16,KY.Chr9.513,
TGFβ receptor-IIa,citb010f11,KY.Chr1.992,
TGFβ receptor-IIb,ciad005i22,KY.Chr7.122,