Atf2/7 (activating transcription factor 2/7),cieg084e13,KY.Chr7.484,
Atf3 (activating transcription factor 3) (selex),cies007p15,KY.Chr10.1341,
Atf4/5 (activating transcription factor 4/5) (selex),ciad001d09,KY.Chr3.264,
Atf6 (activating transcription factor 6),cicl059p09,KY.Chr13.318,Old Name: CREB/ATF-d
Bach (BTB domain and CNC homolog),cieg041k16,KY.Chr6.369,
Cebpa (CCAAT enhancer binding protein alpha),ciad095d11,KY.Chr3.744,Old Name: C/EBPα
Cebpb/c/d/e (CCAAT enhancer binding protein beta/gamma/delta/epsilon) (selex),ciad095o08,KY.Chr3.743,Old Name: C/EBPβ/γ/δ/ε
Creb3l1 (cAMP responsive element binding protein 3 like 1) (selex),cieg009e24,KY.Chr2.2188,Old Name: CREB/ATF-a
Creb3/l1/l4 (cAMP responsive element binding protein 3/like3/like4) (selex),cieg027l12,KY.Chr10.829,Old Name: CREB/ATF-b
Creb1/Crem/Atf1 (cAMP responsive element binding protein 1/cAMP responsive element modulator/activating transcription factor 1) (selex),ciad050l02,KY.Chr1.2051,Old Name: CREB/ATF-c
Fos (Fos transcription factor family),cilv040d24,KY.Chr11.1133,
Jun (Jun transcription factor family),cilv014f12,KY.Chr5.536,
Maf/a/b (MAF bZIP transcription factor/a/b) (selex),cibd084h04,KY.Chr12.532,Old Name: large Maf
Maff/g/k (MAF bZIP transcription factor f/g/k) (selex),ciad026l18,KY.Chr12.534,Old Name: small Maf
Nfe2 (nuclear factor; erythroid 2),cicl015m17,KY.Chr1.1136,Old Name: NF-E2
Nfil3 (nuclear factor; interleukin 3 regulated) (selex),not analyzed,KY.Chr5.623,Old Name: NF-IL2
Tef/Hlf (TEF/Hlf transcription factor; PAR bZIP family member) (selex),cibd010d05,KY.Chr14.42,
Xbp1.a (X-box binding protein 1.a) (selex),not analyzed,KY.Chr4.754,Old Name: xBPa
Xbp1.b (X-box binding protein 1.b) (selex),ciad081e24,KY.Chr10.1174,Old Name: xBPb
Xbp1.c (X-box binding protein 1.c) (selex),citb038f23,KY.Chr8.629,Old Name: xBPc
Xbp1.d (X-box binding protein 1.d),cilv023l12,KY.Chr8.1015,Old Name: xBPd
Bziptun1 (Tunicate bzip 1),cits031a06,KY.Chr13.44,Old Name: Orphan bZip-1
Bziptun2 (Tunicate bzip 2),citb010f17,KY.Chr1.2593,Old Name: Orphan bZip-2
Bziptun3 (Tunicate bzip 3),ciad070b16,KY.Chr1.2594,Old Name: Orphan bZip-3
Bziptun4 (Tunicate bzip 4) (selex),cilv020c01,KY.Chr7.780,Old Name: Orphan bZip-4
Bziptun5 (Tunicate bzip 5),ciad077f22,KY.Chr2.2247,Old Name: Orphan bZip-5